127.0.0.1 - - [31/Jan/2021:22:04:40 -0500] "GET / HTTP/1.1" 404 687
0:0:0:0:0:0:0:1 - - [31/Jan/2021:22:04:41 -0500] "GET /CidenetEmployeeWebApi/ HTTP/1.1" 404 610
127.0.0.1 - - [31/Jan/2021:22:51:31 -0500] "GET / HTTP/1.1" 404 687
0:0:0:0:0:0:0:1 - - [31/Jan/2021:22:51:31 -0500] "GET /CidenetEmployeeWebApi/ HTTP/1.1" 404 610
0:0:0:0:0:0:0:1 - - [31/Jan/2021:22:51:44 -0500] "GET /CidenetEmployeeWebApi/api/countries HTTP/1.1" 200 17
0:0:0:0:0:0:0:1 - - [31/Jan/2021:22:52:12 -0500] "GET /CidenetEmployeeWebApi/api/countries HTTP/1.1" 200 17
0:0:0:0:0:0:0:1 - - [31/Jan/2021:22:54:00 -0500] "GET /CidenetEmployeeWebApi/api/countries HTTP/1.1" 200 17
127.0.0.1 - - [31/Jan/2021:22:56:22 -0500] "GET / HTTP/1.1" 404 687
0:0:0:0:0:0:0:1 - - [31/Jan/2021:22:56:22 -0500] "GET /CidenetEmployeeWebApi/ HTTP/1.1" 404 610
0:0:0:0:0:0:0:1 - - [31/Jan/2021:22:57:59 -0500] "GET /CidenetEmployeeWebApi/api/countries HTTP/1.1" 200 17
0:0:0:0:0:0:0:1 - - [31/Jan/2021:22:58:46 -0500] "GET /CidenetEmployeeWebApi/api/countries HTTP/1.1" 200 17
0:0:0:0:0:0:0:1 - - [31/Jan/2021:22:58:46 -0500] "GET /favicon.ico HTTP/1.1" 404 698
0:0:0:0:0:0:0:1 - - [31/Jan/2021:22:58:53 -0500] "GET /CidenetEmployeeWebApi/api/countries HTTP/1.1" 200 17
0:0:0:0:0:0:0:1 - - [31/Jan/2021:22:58:54 -0500] "GET /CidenetEmployeeWebApi/api/countries HTTP/1.1" 200 17
127.0.0.1 - - [31/Jan/2021:23:01:14 -0500] "GET / HTTP/1.1" 404 687
0:0:0:0:0:0:0:1 - - [31/Jan/2021:23:01:15 -0500] "GET /CidenetEmployeeWebApi/ HTTP/1.1" 404 610
0:0:0:0:0:0:0:1 - - [31/Jan/2021:23:01:21 -0500] "GET /CidenetEmployeeWebApi/api/countries HTTP/1.1" 200 12
127.0.0.1 - - [31/Jan/2021:23:16:52 -0500] "GET / HTTP/1.1" 404 687
0:0:0:0:0:0:0:1 - - [31/Jan/2021:23:16:52 -0500] "GET /CidenetEmployeeWebApi/ HTTP/1.1" 404 610
0:0:0:0:0:0:0:1 - - [31/Jan/2021:23:17:00 -0500] "GET /CidenetEmployeeWebApi/api/countries HTTP/1.1" 200 161
127.0.0.1 - - [31/Jan/2021:23:28:40 -0500] "GET / HTTP/1.1" 404 687
0:0:0:0:0:0:0:1 - - [31/Jan/2021:23:28:41 -0500] "GET /CidenetEmployeeWebApi/ HTTP/1.1" 500 16756
127.0.0.1 - - [31/Jan/2021:23:32:03 -0500] "GET / HTTP/1.1" 404 687
0:0:0:0:0:0:0:1 - - [31/Jan/2021:23:32:03 -0500] "GET /CidenetEmployeeWebApi/ HTTP/1.1" 404 610
0:0:0:0:0:0:0:1 - - [31/Jan/2021:23:32:10 -0500] "GET /CidenetEmployeeWebApi/api/countries HTTP/1.1" 200 161
0:0:0:0:0:0:0:1 - - [31/Jan/2021:23:32:11 -0500] "GET /CidenetEmployeeWebApi/api/countries HTTP/1.1" 200 161
0:0:0:0:0:0:0:1 - - [31/Jan/2021:23:32:13 -0500] "GET /CidenetEmployeeWebApi/api/countries HTTP/1.1" 200 161
0:0:0:0:0:0:0:1 - - [31/Jan/2021:23:32:15 -0500] "GET /CidenetEmployeeWebApi/api/countries HTTP/1.1" 200 161
0:0:0:0:0:0:0:1 - - [31/Jan/2021:23:32:17 -0500] "GET /CidenetEmployeeWebApi/api/countries HTTP/1.1" 200 161
127.0.0.1 - - [31/Jan/2021:23:35:49 -0500] "GET / HTTP/1.1" 404 687
0:0:0:0:0:0:0:1 - - [31/Jan/2021:23:35:49 -0500] "GET /CidenetEmployeeWebApi/ HTTP/1.1" 404 610
0:0:0:0:0:0:0:1 - - [31/Jan/2021:23:35:59 -0500] "GET /CidenetEmployeeWebApi/api/countries HTTP/1.1" 200 161
127.0.0.1 - - [31/Jan/2021:23:40:43 -0500] "GET / HTTP/1.1" 404 687
0:0:0:0:0:0:0:1 - - [31/Jan/2021:23:40:44 -0500] "GET /CidenetEmployeeWebApi/ HTTP/1.1" 404 610
0:0:0:0:0:0:0:1 - - [31/Jan/2021:23:40:55 -0500] "GET /CidenetEmployeeWebApi/api/countries/1 HTTP/1.1" 200 81
0:0:0:0:0:0:0:1 - - [31/Jan/2021:23:41:02 -0500] "GET /CidenetEmployeeWebApi/api/countries/2 HTTP/1.1" 200 88
0:0:0:0:0:0:0:1 - - [31/Jan/2021:23:41:09 -0500] "GET /CidenetEmployeeWebApi/api/countries/5 HTTP/1.1" 404 82
